BirdCLEF 2023 via voice
…
# writing
write.csv(E, row.names = FALSE,
          file = gzfile(paste0(tempdir(), '/E_test.csv.gz')))

3. Modelling

3.1 Objects

The birdclef2023::E_train object contains 264 rows and
486 columns extracted via voice::tag from Kaggle
BirdCLEF2023 train_audio directory.

birdclef2023::E_train
#> # A tibble: 264 × 487
#>    species_code f0_tag_mean f1_tag_mean f2_tag_mean f3_tag_mean f4_tag_mean
#>    <chr>              <dbl>       <dbl>       <dbl>       <dbl>       <dbl>
#>  1 abethr1             80.0       1125.       1860.       2701.       3564.
#>  2 abhori1            122.         860.       1686.       2627.       3543.
#>  3 abythr1             90.3       1085.       1818.       2624.       3462.
#>  4 afbfly1            104.        1159.       1866.       2753.       3621.
#>  5 afdfly1            108.        1289.       2091.       2942.       3791.
#>  6 afecuc1            115.         978.       1801.       2654.       3559.
#>  7 affeag1            169.         934.       1588.       2566.       3486.
#>  8 afgfly1             95.8        869.       1736.       2677.       3550.
#>  9 afghor1            133.        1003.       1909.       2602.       3549.
#> 10 afmdov1            397.         636.       1577.       2558.       3492.
#> # ℹ 254 more rows
#> # ℹ 481 more variables: f5_tag_mean <dbl>, f6_tag_mean <dbl>,
#> #   f7_tag_mean <dbl>, f8_tag_mean <dbl>, zcr1_tag_mean <dbl>,
#> #   rms_tag_mean <dbl>, gain_tag_mean <dbl>, rfc1_tag_mean <dbl>,
#> #   rfc2_tag_mean <dbl>, rfc3_tag_mean <dbl>, rfc4_tag_mean <dbl>,
#> #   rfc5_tag_mean <dbl>, rfc6_tag_mean <dbl>, rfc7_tag_mean <dbl>,
#> #   rfc8_tag_mean <dbl>, rfc9_tag_mean <dbl>, rfc10_tag_mean <dbl>, …

The birdclef2023::E_test object contains 120 rows and
486 columns extracted via voice::tag from Kaggle
BirdCLEF2023 test_soundscapes directory. Each row is
associated with a 5 seconds section of soundscape_29201.ogg
file.

birdclef2023::E_test
#> # A tibble: 120 × 487
#>    row_id            f0_tag_mean f1_tag_mean f2_tag_mean f3_tag_mean f4_tag_mean
#>    <chr>                   <dbl>       <dbl>       <dbl>       <dbl>       <dbl>
#>  1 soundscape_29201…        75.6       1488.       1855.       2868.       3833.
#>  2 soundscape_29201…        NA         1466.       1809.       2817.       3800.
#>  3 soundscape_29201…        65.3       1464.       1889.       2927.       3878.
#>  4 soundscape_29201…        71.8       1332.       1768.       2797.       3759.
#>  5 soundscape_29201…        56.9       1349.       1787.       2806.       3796.
#>  6 soundscape_29201…        79.0       1452.       1877.       2742.       3766.
#>  7 soundscape_29201…        NA         1466.       1816.       2819.       3807.
#>  8 soundscape_29201…        78.4       1351.       1824.       2765.       3741.
#>  9 soundscape_29201…        74.8       1421.       1813.       2819.       3773.
#> 10 soundscape_29201…        66.6       1376.       1798.       2830.       3781.
#> # ℹ 110 more rows
#> # ℹ 481 more variables: f5_tag_mean <dbl>, f6_tag_mean <dbl>,
#> #   f7_tag_mean <dbl>, f8_tag_mean <dbl>, zcr1_tag_mean <dbl>,
#> #   rms_tag_mean <dbl>, gain_tag_mean <dbl>, rfc1_tag_mean <dbl>,
#> #   rfc2_tag_mean <dbl>, rfc3_tag_mean <dbl>, rfc4_tag_mean <dbl>,
#> #   rfc5_tag_mean <dbl>, rfc6_tag_mean <dbl>, rfc7_tag_mean <dbl>,
#> #   rfc8_tag_mean <dbl>, rfc9_tag_mean <dbl>, rfc10_tag_mean <dbl>, …
…
After that, there is some cleaning and tidying up.

block <- strsplit(rownames(P), '_')
block <- as.numeric(sapply(block, geti, 3))
submission <- tibble(block = block, 
                     row_id = rownames(P), 
                     as_tibble(P))

submission <- submission %>% 
  arrange(block) %>% 
  select(-block)

submission
#> # A tibble: 120 × 265
#>    row_id      abethr1 abhori1 abythr1 afbfly1 afdfly1 afecuc1   affeag1 afgfly1
#>    <chr>         <dbl>   <dbl>   <dbl>   <dbl>   <dbl>   <dbl>     <dbl>   <dbl>
#>  1 soundscape…       0       0       0       0       0       0 0               0
#>  2 soundscape…       0       0       0       0       0       0 0               0
#>  3 soundscape…       0       0       0       0       0       0 0               0
#>  4 soundscape…       0       0       0       0       0       0 2.96e-187       0
#>  5 soundscape…       0       0       0       0       0       0 0               0
#>  6 soundscape…       0       0       0       0       0       0 0               0
#>  7 soundscape…       0       0       0       0       0       0 0               0
#>  8 soundscape…       0       0       0       0       0       0 0               0
#>  9 soundscape…       0       0       0       0       0       0 0               0
#> 10 soundscape…       0       0       0       0       0       0 0               0
#> # ℹ 110 more rows
#> # ℹ 256 more variables: afghor1 <dbl>, afmdov1 <dbl>, afpfly1 <dbl>,
#> #   afpkin1 <dbl>, afpwag1 <dbl>, afrgos1 <dbl>, afrgrp1 <dbl>, afrjac1 <dbl>,
#> #   afrthr1 <dbl>, amesun2 <dbl>, augbuz1 <dbl>, bagwea1 <dbl>, barswa <dbl>,
#> #   bawhor2 <dbl>, bawman1 <dbl>, bcbeat1 <dbl>, beasun2 <dbl>, bkctch1 <dbl>,
#> #   bkfruw1 <dbl>, blacra1 <dbl>, blacuc1 <dbl>, blakit1 <dbl>, blaplo1 <dbl>,
#> #   blbpuf2 <dbl>, blcapa2 <dbl>, blfbus1 <dbl>, blhgon1 <dbl>, …
…
